<svg width="28" height="26" viewBox="0 0 28 26" fill="none" xmlns="http://www.w3.org/2000/svg">
    <path d="M0 13C0 5.82032 6.26803 0 14 0C21.732 0 28 5.82032 28 13C28 20.1797 21.732 26 14 26C6.26803 26 0 20.1797 0 13Z" fill="white"/>
    <path fill-rule="evenodd" clip-rule="evenodd" d="M5.8335 12.9785C5.8335 8.80888 9.49695 5.41669 14 5.41669C18.5031 5.41669 22.1667 8.80888 22.1667 12.9785C22.1667 13.5692 22.1136 14.0474 21.9946 14.5274L21.9929 14.5353C21.9926 14.5367 21.9336 14.758 21.9009 14.8545C21.6991 15.4523 21.3337 15.9501 20.8441 16.2942C20.3693 16.6279 19.7806 16.8118 19.1866 16.8118C19.1132 16.8118 19.0393 16.809 18.9669 16.8037C18.1233 16.7409 17.3815 16.3299 16.9266 15.6744C16.1443 16.4028 15.1064 16.8035 14 16.8035C11.7223 16.8035 9.86923 15.0876 9.86923 12.9785C9.86923 10.8694 11.7223 9.15359 14 9.15359C16.2778 9.15359 18.1309 10.8694 18.1309 12.9785V14.2115C18.1342 14.931 18.6556 15.225 19.1011 15.2583C19.5442 15.29 20.134 15.0509 20.3395 14.2708C20.4408 13.843 20.4923 13.4081 20.4923 12.9785C20.4923 9.66373 17.5799 6.96699 14 6.96699C10.4202 6.96699 7.50784 9.66373 7.50784 12.9785C7.50784 16.2932 10.4202 18.99 14 18.99C15.2462 18.99 16.4581 18.6605 17.5048 18.037L17.5236 18.0258L18.6237 19.2102L18.6001 19.2252C17.2405 20.0856 15.6498 20.5404 14 20.5404C9.49695 20.5404 5.8335 17.1482 5.8335 12.9785ZM14 15.2531C15.3545 15.2531 16.4565 14.2327 16.4565 12.9785C16.4565 11.7243 15.3545 10.704 14 10.704C12.6455 10.704 11.5436 11.7243 11.5436 12.9785C11.5436 14.2327 12.6455 15.2531 14 15.2531Z" fill="#8C8DEC"/>
</svg>
